5000         ! number of halo particles
2.5e11       ! Mvir (Msun) Mhalo=Mvir-Mbaryon
7.1        ! cnfw <- charden.exe in NFW
1.5            ! xcut: maximum radius = rvir x xcut
0.26 0.72 0.0  ! omg0 h z
0.044          ! omgb
0           ! number of bulge particles
2.0e11 0.2      ! Mbul (Msun), refac: Re = Re(SDSS) x refac
2              ! number of disks  (since ver.2)
230              ! number of disk particles
2.3e9 0.1         ! Mdisk (Msun)  T (1e4 K)
3.75 1.0        ! h, z0 (kpc)
50.0 10.0      ! rflim, zflim: rlim=h x rflim, zlim=z0 x zflim
3.0 1.0       ! Q, frq  Q at frq x h
360              ! number of disk particles
3.6e9 0.0        ! Mdisk (Msun) T (1e4 K)
1.333 0.5        ! h, z0 (kpc)
50.0 10.0      ! rflim, zflim: rlim=h x rflim, zlim=z0 x zflim
3.0 1.0       ! Q, frq  Q at frq x h
200           ! number of halo gas particles.
0.0             ! redshift
-1.0            ! dlog Z/Zsun
10.0            ! age (Gyr)
